%YAML 1.1
%TAG !u! tag:unity3d.com,2011:
--- !u!114 &11400000
MonoBehaviour:
  m_ObjectHideFlags: 0
  m_CorrespondingSourceObject: {fileID: 0}
  m_PrefabInternal: {fileID: 0}
  m_GameObject: {fileID: 0}
  m_Enabled: 1
  m_EditorHideFlags: 0
  m_Script: {fileID: 11500000, guid: f164ef941b9f7034982fcaec926565bb, type: 3}
  m_Name: BasicAttack_TargetedFireball
  m_EditorClassIdentifier: 
  fireballSpec: {fileID: 11400000, guid: 525ba0c9c3b17e34693bcc005154dbda, type: 2}
