%YAML 1.1
%TAG !u! tag:unity3d.com,2011:
--- !u!221 &22100000
AnimatorOverrideController:
  m_ObjectHideFlags: 0
  m_CorrespondingSourceObject: {fileID: 0}
  m_PrefabInternal: {fileID: 0}
  m_Name: BubblyShield
  m_Controller: {fileID: 9100000, guid: 5b341c86d4973a34db64fcbc10a83804, type: 2}
  m_Clips:
  - m_OriginalClip: {fileID: 7400000, guid: e94821d26773f5d4296004e3bb5a885e, type: 2}
    m_OverrideClip: {fileID: 7400000, guid: 38b34c08701786a47ac8bc6d7bece2ad, type: 2}
  - m_OriginalClip: {fileID: 7400000, guid: f22e2d3df3c43ec41bd8f70965dab7a3, type: 2}
    m_OverrideClip: {fileID: 7400000, guid: ee07ee99aa3497648be853ef3b7fd0e8, type: 2}
