%YAML 1.1
%TAG !u! tag:unity3d.com,2011:
--- !u!114 &11400000
MonoBehaviour:
  m_ObjectHideFlags: 0
  m_CorrespondingSourceObject: {fileID: 0}
  m_PrefabInternal: {fileID: 0}
  m_GameObject: {fileID: 0}
  m_Enabled: 1
  m_EditorHideFlags: 0
  m_Script: {fileID: 11500000, guid: 3d12814cf61558747b4619c10dff7a82, type: 3}
  m_Name: FireForm
  m_EditorClassIdentifier: 
  numberOfJumps: 2
  dashSpeed: 15
  dashDuration: 0.3
  airDashes: 1
  canDash: 0
  switchVoice: {fileID: 8300000, guid: 399cec0b7c707474aa834d9679beb7e2, type: 3}
  basicAttack: {fileID: 11400000, guid: db597afb072d1454fbbe61b0568b2730, type: 2}
