%YAML 1.1
%TAG !u! tag:unity3d.com,2011:
--- !u!114 &11400000
MonoBehaviour:
  m_ObjectHideFlags: 0
  m_CorrespondingSourceObject: {fileID: 0}
  m_PrefabInternal: {fileID: 0}
  m_GameObject: {fileID: 0}
  m_Enabled: 1
  m_EditorHideFlags: 0
  m_Script: {fileID: 11500000, guid: 3d12814cf61558747b4619c10dff7a82, type: 3}
  m_Name: WaterForm
  m_EditorClassIdentifier: 
  numberOfJumps: 1
  dashSpeed: 10
  dashDuration: 0.1
  airDashes: 0
  canDash: 0
  switchVoice: {fileID: 8300000, guid: 03ec0b938f1f7af4785d595dd767b4dc, type: 3}
  basicAttack: {fileID: 11400000, guid: e9c9bec87e61d9948832e6a936e0a516, type: 2}
